Classify articles into covid vs. non-covid
…
article_raw %>% 
  filter(site_name == 'Channel News Asia' & date == '2020-03-29') %>% 
  select(Headline, FacebookInteractions) %>% 
  arrange(desc(FacebookInteractions))

# A tibble: 96 x 2
   Headline                                         FacebookInteracti…
   <chr>                                                         <dbl>
 1 ICA cancels Singaporean's passport for breachin…              52899
 2 Singapore reports third death from COVID-19                   27678
 3 In rare case, US infant dies from COVID-19                    22086
 4 Daughter of man who died from COVID-19 thanks S…              12565
 5 Hospitals turn to snorkel masks to ease respira…               9905
 6 COVID-19: Taxi, private-hire car drivers allowe…               6427
 7 MOM steps up efforts to disperse gatherings of …               6353
 8 Eight killed after medical evacuation plane cra…               5179
 9 Parents voice frustration over learning centres…               2460
10 In pictures: Safe distancing in Singapore                      2428
# … with 86 more rows
…
